Feature Extraction And Statistics for Time Series • feasts
…
Feature extraction and statistics

Extract features and statistics across a large collection of time series to identify unusual/extreme time series, or find clusters of similar behaviour.

aus_retail %>% 
  features(Turnover, stl_features)
#> # A tibble: 152 x 9
#>    State Industry trend_strength seasonal_streng…   spike linearity curvature seasonal_peak.y…
#>    <chr> <chr>             <dbl>            <dbl>   <dbl>     <dbl>     <dbl>            <dbl>
#>  1 Aust… Cafes, …          0.989            0.540 6.17e-5     224.      48.5                 0
#>  2 Aust… Cafes, …          0.993            0.609 1.16e-4     336.      76.1                 0
#>  3 Aust… Clothin…          0.990            0.914 4.93e-6     129.      16.8                 9
#>  4 Aust… Clothin…          0.991            0.947 2.60e-5     192.      18.4                 9
#>  5 Aust… Departm…          0.975            0.977 2.85e-5     130.     -42.8                 9
#>  6 Aust… Electri…          0.991            0.925 3.19e-5     232.      -8.24                9
#>  7 Aust… Food re…          0.999            0.874 2.50e-4    1247.     197.                  9
#>  8 Aust… Footwea…          0.978            0.929 7.75e-6      63.0      1.60                9
#>  9 Aust… Furnitu…          0.979            0.657 4.87e-5     139.     -22.5                 9
#> 10 Aust… Hardwar…          0.992            0.892 1.56e-5     170.      44.1                 9
#> # … with 142 more rows, and 1 more variable: seasonal_trough.year <dbl>
…
