…
-   Classical decomposition
-   STL decomposition

<!--
* X11 decomposition
* X-13ARIMA-SEATS decomposition
-->

``` r
dcmp <- aus_production %>%
  model(STL(Beer ~ season(window = Inf)))
components(dcmp)
#> # A dable: 218 x 7 [1Q]
#> # Key:     .model [1]
#> # :        Beer = trend + season_year + remainder
#>    .model                           Quarter  Beer trend season_year remainder season_adjust
#>    <chr>                              <qtr> <dbl> <dbl>       <dbl>     <dbl>         <dbl>
#>  1 STL(Beer ~ season(window = Inf)) 1956 Q1   284  272.        2.14     10.1           282.
#>  2 STL(Beer ~ season(window = Inf)) 1956 Q2   213  264.      -42.6      -8.56          256.
#>  3 STL(Beer ~ season(window = Inf)) 1956 Q3   227  258.      -28.5      -2.34          255.
#>  4 STL(Beer ~ season(window = Inf)) 1956 Q4   308  253.       69.0     -14.4           239.
#>  5 STL(Beer ~ season(window = Inf)) 1957 Q1   262  257.        2.14      2.55          260.
#>  6 STL(Beer ~ season(window = Inf)) 1957 Q2   228  261.      -42.6       9.47          271.
#>  7 STL(Beer ~ season(window = Inf)) 1957 Q3   236  263.      -28.5       1.80          264.
#>  8 STL(Beer ~ season(window = Inf)) 1957 Q4   320  264.       69.0     -12.7           251.
#>  9 STL(Beer ~ season(window = Inf)) 1958 Q1   272  266.        2.14      4.32          270.
#> 10 STL(Beer ~ season(window = Inf)) 1958 Q2   233  266.      -42.6       9.72          276.
#> # … with 208 more rows
```
…
<img src="man/figures/README-dcmp-plot-1.png" width="100%" />

### Feature extraction and statistics

Extract features and statistics across a large collection of time series
to identify unusual/extreme time series, or find clusters of similar
behaviour.

``` r
aus_retail %>%
  features(Turnover, feat_stl)
#> # A tibble: 152 × 11
#>    State             Indus…¹ trend…² seaso…³ seaso…⁴ seaso…⁵ spiki…⁶ linea…⁷ curva…⁸ stl_e…⁹ stl_e…˟
#>    <chr>             <chr>     <dbl>   <dbl>   <dbl>   <dbl>   <dbl>   <dbl>   <dbl>   <dbl>   <dbl>
#>  1 Australian Capit… Cafes,…   0.989   0.562       0      10 5.15e-5   227.    48.5   0.281   0.187 
#>  2 Australian Capit… Cafes,…   0.993   0.629       0      10 9.73e-5   342.    77.8   0.320   0.218 
#>  3 Australian Capit… Clothi…   0.991   0.923       9      11 4.23e-6   131.    17.4   0.262   0.152 
#>  4 Australian Capit… Clothi…   0.993   0.957       9      11 1.29e-5   195.    19.3   0.262   0.193 
#>  5 Australian Capit… Depart…   0.977   0.980       9      11 2.21e-5   130.   -43.9  -0.254   0.119 
#>  6 Australian Capit… Electr…   0.992   0.933       9      11 2.68e-5   233.    -9.07  0.308   0.207 
#>  7 Australian Capit… Food r…   0.999   0.890       9      11 2.24e-4  1264.   199.    0.0866  0.268 
#>  8 Australian Capit… Footwe…   0.982   0.944       9      11 3.69e-6    64.0    1.95  0.152   0.176 
#>  9 Australian Capit… Furnit…   0.981   0.687       9       1 4.09e-5   141.   -21.6   0.200   0.0812
#> 10 Australian Capit… Hardwa…   0.992   0.900       9       4 1.32e-5   173.    45.1   0.102   0.0796
#> # … with 142 more rows, and abbreviated variable names ¹​Industry, ²​trend_strength,
#> #   ³​seasonal_strength_year, ⁴​seasonal_peak_year, ⁵​seasonal_trough_year, ⁶​spikiness, ⁷​linearity,
#> #   ⁸​curvature, ⁹​stl_e_acf1, ˟​stl_e_acf10
```
…
