Feature Extraction and Statistics for Time Series • feasts
…
Feature extraction and statistics

Extract features and statistics across a large collection of time series to identify unusual/extreme time series, or find clusters of similar behaviour.

aus_retail %>%
  features(Turnover, feat_stl)
#> # A tibble: 152 x 11
#>    State Industry trend_strength seasonal_streng… seasonal_peak_y… seasonal_trough… spikiness
#>    <chr> <chr>             <dbl>            <dbl>            <dbl>            <dbl>     <dbl>
#>  1 Aust… Cafes, …          0.989            0.537                0               10   6.15e-5
#>  2 Aust… Cafes, …          0.993            0.610                0               10   1.12e-4
#>  3 Aust… Clothin…          0.990            0.918                9               11   4.77e-6
#>  4 Aust… Clothin…          0.992            0.952                9               11   2.06e-5
#>  5 Aust… Departm…          0.975            0.977                9               11   2.79e-5
#>  6 Aust… Electri…          0.991            0.929                9               11   3.03e-5
#>  7 Aust… Food re…          0.999            0.882                9               11   2.74e-4
#>  8 Aust… Footwea…          0.980            0.937                9               11   5.54e-6
#>  9 Aust… Furnitu…          0.980            0.669                9                1   4.66e-5
#> 10 Aust… Hardwar…          0.992            0.895                9                4   1.47e-5
#> # … with 142 more rows, and 4 more variables: linearity <dbl>, curvature <dbl>, stl_e_acf1 <dbl>,
#> #   stl_e_acf10 <dbl>
…
