Introduction to feasts • feasts
…
A look at the correlations in each series could reveal structures
which are difficult to identify in the above plots.

tourism_melb %>%
  ACF(Trips)
#> # A tsibble: 76 x 5 [1Q]
#> # Key:       Region, State, Purpose [4]
#>    Region    State    Purpose       lag     acf
#>    <chr>     <chr>    <chr>    <cf_lag>   <dbl>
#>  1 Melbourne Victoria Business       1Q  0.487 
#>  2 Melbourne Victoria Business       2Q  0.193 
#>  3 Melbourne Victoria Business       3Q  0.331 
#>  4 Melbourne Victoria Business       4Q  0.470 
#>  5 Melbourne Victoria Business       5Q  0.219 
#>  6 Melbourne Victoria Business       6Q  0.0750
#>  7 Melbourne Victoria Business       7Q  0.168 
#>  8 Melbourne Victoria Business       8Q  0.321 
#>  9 Melbourne Victoria Business       9Q  0.166 
#> 10 Melbourne Victoria Business      10Q -0.0183
#> # ℹ 66 more rows
…
Another helpful strategy in investigating the patterns in a time
series is to decompose it into components of interest. A useful
decomposition for this is the STL decomposition, which allows you to
extract multiple seasonal patterns with any seasonal period.

tourism_melb %>%
  model(STL(Trips ~ season(window = "periodic"))) %>% 
  components()
#> # A dable: 320 x 10 [1Q]
#> # Key:     Region, State, Purpose, .model [4]
#> # :        Trips = trend + season_year + remainder
#>    Region    State    Purpose  .model  Quarter Trips trend season_year remainder
#>    <chr>     <chr>    <chr>    <chr>     <qtr> <dbl> <dbl>       <dbl>     <dbl>
#>  1 Melbourne Victoria Business "STL(T… 1998 Q1  405.  437.      -58.0      25.8 
#>  2 Melbourne Victoria Business "STL(T… 1998 Q2  408.  434.       18.1     -44.1 
#>  3 Melbourne Victoria Business "STL(T… 1998 Q3  486.  430.       37.9      18.3 
#>  4 Melbourne Victoria Business "STL(T… 1998 Q4  429.  431.        1.99     -3.48
#>  5 Melbourne Victoria Business "STL(T… 1999 Q1  361.  427.      -58.0      -7.82
#>  6 Melbourne Victoria Business "STL(T… 1999 Q2  486.  409.       18.1      58.6 
#>  7 Melbourne Victoria Business "STL(T… 1999 Q3  359.  418.       37.9     -97.0 
#>  8 Melbourne Victoria Business "STL(T… 1999 Q4  426.  440.        1.99    -16.7 
#>  9 Melbourne Victoria Business "STL(T… 2000 Q1  495.  468.      -58.0      84.1 
#> 10 Melbourne Victoria Business "STL(T… 2000 Q2  499.  501.       18.1     -19.8 
#> # ℹ 310 more rows
#> # ℹ 1 more variable: season_adjust <dbl>
…
