(Partial) Autocorrelation and Cross-Correlation Function Estimation — ACF • feasts
…
aus_elec %>% ACF(Temperature)
#> # A tsibble: 235 x 3 [30m]
#> # Key:       State [5]
#>    State             lag   acf
#>    <chr>           <lag> <dbl>
#>  1 New South Wales   30m 0.992
#>  2 New South Wales   60m 0.978
#>  3 New South Wales   90m 0.959
#>  4 New South Wales  120m 0.935
#>  5 New South Wales  150m 0.908
#>  6 New South Wales  180m 0.878
#>  7 New South Wales  210m 0.847
#>  8 New South Wales  240m 0.814
#>  9 New South Wales  270m 0.781
#> 10 New South Wales  300m 0.748
#> # … with 225 more rows

aus_elec %>% PACF(Temperature)
#> # A tsibble: 235 x 3 [30m]
#> # Key:       State [5]
#>    State             lag      pacf
#>    <chr>           <lag>     <dbl>
#>  1 New South Wales   30m  0.992   
#>  2 New South Wales   60m -0.444   
#>  3 New South Wales   90m -0.202   
#>  4 New South Wales  120m -0.116   
#>  5 New South Wales  150m -0.0657  
#>  6 New South Wales  180m -0.0309  
#>  7 New South Wales  210m  0.000787
#>  8 New South Wales  240m  0.0180  
#>  9 New South Wales  270m  0.0102  
#> 10 New South Wales  300m  0.0179  
#> # … with 225 more rows

global_economy %>%
  filter(Country == "Australia") %>%
  CCF(GDP, Population)
#> # A tsibble: 29 x 3 [1Y]
#> # Key:       Country [1]
#>    Country     lag    ccf
#>    <fct>     <lag>  <dbl>
#>  1 Australia  -14Y 0.0315
#>  2 Australia  -13Y 0.0673
#>  3 Australia  -12Y 0.108 
#>  4 Australia  -11Y 0.152 
#>  5 Australia  -10Y 0.203 
#>  6 Australia   -9Y 0.268 
#>  7 Australia   -8Y 0.321 
#>  8 Australia   -7Y 0.389 
#>  9 Australia   -6Y 0.472 
#> 10 Australia   -5Y 0.563 
#> # … with 19 more rows
…
