Multiple seasonal decomposition by Loess — STL • feasts
…
    References

    R. B. Cleveland, W. S. Cleveland, J.E. McRae, and I. Terpenning (1990) STL: A Seasonal-Trend Decomposition Procedure Based on Loess. Journal of Official Statistics, 6, 3–73.

    See also

    stl, supsmu

    Examples

as_tsibble(USAccDeaths) %>%
  model(STL(value ~ trend(window = 10))) %>%
  components()
#> # A dable: 72 x 7 [1M]
#> # Key:     .model [1]
#> # :        value = trend + season_year + remainder
#>    .model                  index value trend season_year remainder season_adjust
#>    <chr>                   <mth> <dbl> <dbl>       <dbl>     <dbl>         <dbl>
#>  1 STL(value ~ trend(w… 1973 Jan  9007 9676.       -792.     123.          9799.
#>  2 STL(value ~ trend(w… 1973 Feb  8106 9691.      -1510.     -75.1         9616.
#>  3 STL(value ~ trend(w… 1973 Mar  8928 9706.       -707.     -70.7         9635.
#>  4 STL(value ~ trend(w… 1973 Apr  9137 9720.       -522.     -61.2         9659.
#>  5 STL(value ~ trend(w… 1973 May 10017 9733.        325.     -41.3         9692.
#>  6 STL(value ~ trend(w… 1973 Jun 10826 9753.        843.     229.          9983.
#>  7 STL(value ~ trend(w… 1973 Jul 11317 9764.       1617.     -64.5         9700.
#>  8 STL(value ~ trend(w… 1973 Aug 10744 9734.        981.      28.4         9763.
#>  9 STL(value ~ trend(w… 1973 Sep  9713 9638.       -105.     181.          9818.
#> 10 STL(value ~ trend(w… 1973 Oct  9938 9473.        232.     233.          9706.
#> # ℹ 62 more rows
…
