X-13ARIMA-SEATS Seasonal Adjustment — X_13ARIMA_SEATS • feasts
…
#> MA-Nonseasonal-02 -0.34105    0.06362  -5.361 8.28e-08 ***
#> MA-Seasonal-04     0.77186    0.04380  17.621  < 2e-16 ***
#> ---
#> Signif. codes:  0 ‘***’ 0.001 ‘**’ 0.01 ‘*’ 0.05 ‘.’ 0.1 ‘ ’ 1
#> 
#> SEATS adj.  ARIMA: (0 1 2)(0 1 1)  Obs.: 218  Transform: log
#> AICc:  1748, BIC:  1761  QS (no seasonality in final):    0  
#> Box-Ljung (no autocorr.): 16.09   Shapiro (normality): 0.994  
#> Messages generated by X-13:
#> Notes:
#> - Model used for SEATS decomposition is different from the model
#>   estimated in the regARIMA modeling module of X-13ARIMA-SEATS.
#> 
components(fit)
#> # A dable: 218 x 7 [1Q]
#> # Key:     .model [1]
#> # :        Beer = f(trend, seasonal, irregular)
#>    .model                Quarter  Beer trend seasonal irregular season_adjust
#>    <chr>                   <qtr> <dbl> <dbl>    <dbl>     <dbl>         <dbl>
#>  1 X_13ARIMA_SEATS(Beer) 1956 Q1   284  255.    1.05      1.06           271.
#>  2 X_13ARIMA_SEATS(Beer) 1956 Q2   213  255.    0.860     0.970          248.
#>  3 X_13ARIMA_SEATS(Beer) 1956 Q3   227  256.    0.912     0.973          249.
#>  4 X_13ARIMA_SEATS(Beer) 1956 Q4   308  257.    1.19      1.01           258.
#>  5 X_13ARIMA_SEATS(Beer) 1957 Q1   262  258.    1.04      0.976          251.
#>  6 X_13ARIMA_SEATS(Beer) 1957 Q2   228  259.    0.863     1.02           264.
#>  7 X_13ARIMA_SEATS(Beer) 1957 Q3   236  260.    0.915     0.992          258.
#>  8 X_13ARIMA_SEATS(Beer) 1957 Q4   320  261.    1.19      1.03           268.
#>  9 X_13ARIMA_SEATS(Beer) 1958 Q1   272  262.    1.04      1.00           262.
#> 10 X_13ARIMA_SEATS(Beer) 1958 Q2   233  262.    0.864     1.03           270.
#> # … with 208 more rows
…
#> 
#> Coefficients:
#>                    Estimate Std. Error z value Pr(>|z|)    
#> LS1983.1          -38.92679    8.45097  -4.606 4.10e-06 ***
#> MA-Nonseasonal-01   1.01617    0.06401  15.875  < 2e-16 ***
#> MA-Nonseasonal-02  -0.35354    0.06562  -5.388 7.13e-08 ***
#> MA-Seasonal-04      0.73083    0.04917  14.865  < 2e-16 ***
#> ---
#> Signif. codes:  0 ‘***’ 0.001 ‘**’ 0.01 ‘*’ 0.05 ‘.’ 0.1 ‘ ’ 1
#> 
#> X11 adj.  ARIMA: (0 1 2)(0 1 1)  Obs.: 218  Transform: none
#> AICc:  1764, BIC:  1780  QS (no seasonality in final):    0  
#> Box-Ljung (no autocorr.): 13.26   Shapiro (normality): 0.9888 .
components(fit)
#> # A dable: 218 x 7 [1Q]
#> # Key:     .model [1]
#> # :        Beer = trend + seasonal + irregular
#>    .model                            Quarter  Beer trend seaso…¹ irreg…² seaso…³
#>    <chr>                               <qtr> <dbl> <dbl>   <dbl>   <dbl>   <dbl>
#>  1 "X_13ARIMA_SEATS(Beer ~ transfor… 1956 Q1   284  272.    6.36    5.66    278.
#>  2 "X_13ARIMA_SEATS(Beer ~ transfor… 1956 Q2   213  255.  -35.7    -6.71    249.
#>  3 "X_13ARIMA_SEATS(Beer ~ transfor… 1956 Q3   227  249.  -23.7     1.62    251.
#>  4 "X_13ARIMA_SEATS(Beer ~ transfor… 1956 Q4   308  252.   53.0     2.56    255.
#>  5 "X_13ARIMA_SEATS(Beer ~ transfor… 1957 Q1   262  257.    6.69   -2.18    255.
#>  6 "X_13ARIMA_SEATS(Beer ~ transfor… 1957 Q2   228  261.  -36.4     3.92    264.
#>  7 "X_13ARIMA_SEATS(Beer ~ transfor… 1957 Q3   236  263.  -22.8    -4.00    259.
#>  8 "X_13ARIMA_SEATS(Beer ~ transfor… 1957 Q4   320  265.   52.3     2.25    268.
#>  9 "X_13ARIMA_SEATS(Beer ~ transfor… 1958 Q1   272  267.    7.11   -1.94    265.
#> 10 "X_13ARIMA_SEATS(Beer ~ transfor… 1958 Q2   233  266.  -37.3     4.00    270.
#> # … with 208 more rows, and abbreviated variable names ¹​seasonal, ²​irregular,
#> #   ³​season_adjust
…
