(Partial) Autocorrelation and Cross-Correlation Function Estimation — ACF • feasts
…
library(tsibble)
library(tsibbledata)
library(dplyr)
#> 
#> Attaching package: ‘dplyr’
#> The following objects are masked from ‘package:stats’:
#> 
#>     filter, lag
#> The following objects are masked from ‘package:base’:
#> 
#>     intersect, setdiff, setequal, union

vic_elec %>% ACF(Temperature)
#> # A tsibble: 47 x 2 [30m]
#>      lag   acf
#>    <lag> <dbl>
#>  1   30m 0.994
#>  2   60m 0.982
#>  3   90m 0.967
#>  4  120m 0.948
#>  5  150m 0.925
#>  6  180m 0.901
#>  7  210m 0.873
#>  8  240m 0.845
#>  9  270m 0.815
#> 10  300m 0.785
#> # … with 37 more rows
…
vic_elec %>% PACF(Temperature)
#> # A tsibble: 47 x 2 [30m]
#>      lag    pacf
#>    <lag>   <dbl>
#>  1   30m  0.994 
#>  2   60m -0.395 
#>  3   90m -0.220 
#>  4  120m -0.141 
#>  5  150m -0.0911
#>  6  180m -0.0611
#>  7  210m -0.0252
#>  8  240m -0.0101
#>  9  270m  0.0152
#> 10  300m  0.0169
#> # … with 37 more rows
…
global_economy %>%
  filter(Country == "Australia") %>%
  CCF(GDP, Population)
#> # A tsibble: 29 x 3 [1Y]
#> # Key:       Country [1]
#>    Country     lag    ccf
#>    <fct>     <lag>  <dbl>
#>  1 Australia  -14Y 0.0315
#>  2 Australia  -13Y 0.0673
#>  3 Australia  -12Y 0.108 
#>  4 Australia  -11Y 0.152 
#>  5 Australia  -10Y 0.203 
#>  6 Australia   -9Y 0.268 
#>  7 Australia   -8Y 0.321 
#>  8 Australia   -7Y 0.389 
#>  9 Australia   -6Y 0.472 
#> 10 Australia   -5Y 0.563 
#> # … with 19 more rows
…
