Introduction to feasts • feasts
…
tourism_melb %>% 
  ACF(Trips)
#> # A tsibble: 76 x 5 [1Q]
#> # Key:       Region, State, Purpose [4]
#>    Region    State    Purpose    lag     acf
#>    <chr>     <chr>    <chr>    <lag>   <dbl>
#>  1 Melbourne Victoria Business    1Q  0.487 
#>  2 Melbourne Victoria Business    2Q  0.193 
#>  3 Melbourne Victoria Business    3Q  0.331 
#>  4 Melbourne Victoria Business    4Q  0.470 
#>  5 Melbourne Victoria Business    5Q  0.219 
#>  6 Melbourne Victoria Business    6Q  0.0750
#>  7 Melbourne Victoria Business    7Q  0.168 
#>  8 Melbourne Victoria Business    8Q  0.321 
#>  9 Melbourne Victoria Business    9Q  0.166 
#> 10 Melbourne Victoria Business   10Q -0.0183
#> # … with 66 more rows
…
